# Title: Twann's List
# Version: 220118
# Description: A powerful filter, combining security, privacy protection, ad blocking, and social icons and annoyances blocking.
# Homepage: https://codeberg.org/twann/filters
# License: https://codeberg.org/twann/filters/src/branch/master/LICENSE
# Issues: https://codeberg.org/twann/filters/issues

# --------- ALLOW ---------


# --------- BLOCK ---------

# [Phishing & Malware]
127.0.0.1		70news.wordpress.com.webs.co.com
127.0.0.1		190-2-131-201.hosted-by-worldstream.net
127.0.0.1		d2ip7iv1l4ergv.cloudfront.net
127.0.0.1		d2tr3e2bwzpvfj.cloudfront.net
127.0.0.1		822f797ef9d68ad3.com
127.0.0.1		544bd1e82a9c8c39.com
127.0.0.1		e21b1642db801b2a.com
127.0.0.1		ded733b374cc1c3f.com
127.0.0.1		ae21a0ad95016488.com
127.0.0.1		82448dceaaa13034.com
127.0.0.1		mobile-protection.club
127.0.0.1		main.termux-mirror.ml
127.0.0.1		1redirc.com
127.0.0.1		ww38.main.termux-mirror.ml
127.0.0.1		ublock.org
#
# [Ads & Trackers]
127.0.0.1		grunerandjahr.112.2o7.net
127.0.0.1		stat.adguard.com
127.0.0.1		adobedmt.com
127.0.0.1		adobedc.net
127.0.0.1		adobedtm.com
127.0.0.1		adobe-analytics.net
127.0.0.1		adobe-analytics.com
127.0.0.1		demdex.net
127.0.0.1		dpm.demdex.net
127.0.0.1		amazon-adsystem.com
127.0.0.1		z-na.amazon-adsystem.com
127.0.0.1		c.amazon-adsystem.com
127.0.0.1		mobileanalytics.us-east-1.amazonaws.com
127.0.0.1		certify-js.alexametrics.com
127.0.0.1		alexametrics.com
127.0.0.1		measure.analysis.fi
127.0.0.1		ecdn.analysis.fi
127.0.0.1		app.adjust.com
127.0.0.1		appstoreconnect.apple.com
127.0.0.1		analytics.itunes.apple.com
127.0.0.1		podcastsconnect.apple.com
127.0.0.1		banners.itunes.apple.com
127.0.0.1		metrics.apple.com
127.0.0.1		securemetrics.apple.com
127.0.0.1		secure.adnxs.com
127.0.0.1		ib.adnxs.com
127.0.0.1		t.av.st
127.0.0.1		cloudapp.azure.com
127.0.0.1		browser-update.org
127.0.0.1		bugly.qq.com
127.0.0.1		servedby-buysellads.com
127.0.0.1		3c3om01yrod0fs2t838h82el-wpengine.netdna-ssl.com
127.0.0.1		cdn.carbonads.com
127.0.0.1		consentmanager.mgr.consensu.org
127.0.0.1		quantcast.mgr.consensu.org
127.0.0.1		consent.cookiebot.com
127.0.0.1		datadoghq-browser-agent.com
127.0.0.1		androidauthority.disqus.com
127.0.0.1		metrics.dropwizard.io
127.0.0.1		improving.duckduckgo.com
127.0.0.1		ads.facebook.com
127.0.0.1		ads.facebook.net
127.0.0.1		analytics.facebook.com
127.0.0.1		analytics.facebook.net
127.0.0.1		appevents.facebook.com
127.0.0.1		audiencenetwork.facebook.com
127.0.0.1		places.facebook.com
127.0.0.1		share.facebook.com
127.0.0.1		connect.facebook.com
127.0.0.1		connect.facebook.net
127.0.0.1		lookaside.facebook.com
127.0.0.1		ecdn.firstimpression.io
127.0.0.1		publishers.firstimpression.io
127.0.0.1		analytics.ghostery.com
127.0.0.1		js.gleam.io
127.0.0.1		s.go-mpulse.net
127.0.0.1		c.go-mpulse.net
127.0.0.1		ip46.go-mpulse.net.edgekey.net
127.0.0.1		wildcard46.go-mpulse.net.edgekey.net
127.0.0.1		a-fds.youborafds01.com
127.0.0.1		2mdn.net
127.0.0.1		dmtry.com
127.0.0.1		doubleclick.com
127.0.0.1		doubleclick.net
127.0.0.1		mng-ads.com
127.0.0.1		adservice.google.com
127.0.0.1		adservice.io
127.0.0.1		googleadservices.com
127.0.0.1		feedads.googleadservices.com
127.0.0.1		partner.googleadservices.com
127.0.0.1		www.googleadservices.com
127.0.0.1		9098b63249ee4522c5d8677059fe22e4.safeframe.googlesyndication.com
127.0.0.1		pagead-googlehosted.l.google.com
127.0.0.1		firebase.com
127.0.0.1		firestore.googleapis.com
127.0.0.1		firebaseremoteconfig.googleapis.com
127.0.0.1		firebaseinstallations.googleapis.com
127.0.0.1		firebaselogging.googleapis.com
127.0.0.1		firebase-settings.crashlytics.com
127.0.0.1		try.crashlytics.com
127.0.0.1		settings.crashlytics.com
127.0.0.1		crashlytics.l.google.com
127.0.0.1		crashlytics.com
127.0.0.1		b.scorecardresearch.com
127.0.0.1		tpc.googlesyndication.com
127.0.0.1		google-analytics.com
127.0.0.1		www.google-analytics.com
127.0.0.1		analytics.withgoogle.com
127.0.0.1		googleanalytics.com
127.0.0.1		ssl.google-analytics.com
127.0.0.1		www-google-analytics.l.google.com
127.0.0.1		ssl-google-analytics.l.google.com
127.0.0.1		google-analytics.l.google.com
127.0.0.1		g.doubleclick.net
127.0.0.1		securepubads.g.doubleclick.net
127.0.0.1		displayads-formats.googleusercontent.com
127.0.0.1		pagead46.l.doubleclick.net
127.0.0.1		partnerad.l.doubleclick.net
127.0.0.1		buttons.googlesyndication.com
127.0.0.1		pagead1.googlesyndication.com
127.0.0.1		pagead2.googlesyndication.com
127.0.0.1		pagead3.googlesyndication.com
127.0.0.1		pagead.googlesyndication.com
127.0.0.1		googleads2.g.doubleclick.net
127.0.0.1		googleads6.g.doubleclick.net
127.0.0.1		googleads7.g.doubleclick.net
127.0.0.1		googleads4.g.doubleclick.net
127.0.0.1		2542116.fls.doubleclick.net
127.0.0.1		9309168.fls.doubleclick.net
127.0.0.1		googleads.g.doubleclick.net
127.0.0.1		static.doubleclick.net
127.0.0.1		cm.g.doubleclick.net
127.0.0.1		pubads.g.doubleclick.net
127.0.0.1		www.googletagservices.com
127.0.0.1		www.googleoptimize.com
127.0.0.1		cse.google.com
127.0.0.1		video-stats.video.google.com
127.0.0.1		clientmetrics-pa.googleapis.com
127.0.0.1		mail-ads.google.com
127.0.0.1		mimageads.googleadservices.com
127.0.0.1		mimageads1.googleadservices.com
127.0.0.1		mimageads2.googleadservices.com
127.0.0.1		mimageads3.googleadservices.com
127.0.0.1		mimageads4.googleadservices.com
127.0.0.1		mimageads5.googleadservices.com
127.0.0.1		mimageads6.googleadservices.com
127.0.0.1		mimageads7.googleadservices.com
127.0.0.1		mimageads8.googleadservices.com
127.0.0.1		mimageads9.googleadservices.com
127.0.0.1		adsense.google.com
127.0.0.1		b.scorecardresearch.com
127.0.0.1		www.googleoptimize.com
127.0.0.1		static.hotjar.com
127.0.0.1		instant.page
127.0.0.1		analytics.jumboprivacy.com
127.0.0.1		trk.klclick.com
127.0.0.1		klclick.com
127.0.0.1		telemetry.malwarebytes.com
127.0.0.1		a.tiles.mapbox.com
127.0.0.1		api.tiles.mapbox.com
127.0.0.1		ogx.optimizely.com
127.0.0.1		pixel.mathtag.com
127.0.0.1		pixel.mathtag.com.edgekey.net
127.0.0.1		e6791.b.akamaiedge.net
127.0.0.1		piwik.biblissima.fr
127.0.0.1		service.maxymiser.net
127.0.0.1		stats.merriam-webster.com
127.0.0.1		appcenter.ms
127.0.0.1		in.appcenter.ms
127.0.0.1		appcenter.microsoft.com
127.0.0.1		appcenteranalytics.microsoft.com
127.0.0.1		analytics.microsoft.com
127.0.0.1		vortex.data.microsoft.com
127.0.0.1		web.vortex.data.microsoft.com
127.0.0.1		pipe.aria.microsoft.com
127.0.0.1		browser.pipe.aria.microsoft.com
127.0.0.1		mobile.events.data.microsoft.com
127.0.0.1		browser.events.data.microsoft.com
127.0.0.1		self.events.data.microsoft.com
127.0.0.1		target.microsoft.com
127.0.0.1		crashes.microsoft.com
127.0.0.1		analytics.microsoft.com
127.0.0.1		collector.githubapp.com
127.0.0.1		bingads.microsoft.com
127.0.0.1		m.bingads.microsoft.com
127.0.0.1		fp.advertising.microsoft.com
127.0.0.1		advertise.bingads.microsoft.com
127.0.0.1		smetric.ads.microsoft.com
127.0.0.1		sqm.telemetry.microsoft.com
127.0.0.1		telemetry.microsoft.com
127.0.0.1		telecommand.telemetry.microsoft.com
127.0.0.1		reports.wes.df.telemetry.microsoft.com
127.0.0.1		df.telemetry.microsoft.com
127.0.0.1		wes.df.telemetry.microsoft.com
127.0.0.1		dc.ads.linkedin.com
127.0.0.1		snap.licdn.com
127.0.0.1		px.ads.linkedin.com
127.0.0.1		apx.moatads.com
127.0.0.1		geo.moatads.com
127.0.0.1		js.moatads.com
127.0.0.1		mb.moatads.com
127.0.0.1		pixel.moatads.com
127.0.0.1		px.moatads.com
127.0.0.1		sejs.moatads.com
127.0.0.1		yt.moatads.com
127.0.0.1		yts.moatads.com
127.0.0.1		z.moatads.com
127.0.0.1		data.mothership.tools
127.0.0.1		telemetry.mozilla.org
127.0.0.1		sql.telemetry.mozilla.org
127.0.0.1		gecko.mozilla.org
127.0.0.1		jadserve.postrelease.com
127.0.0.1		mps.nbcuni.com
127.0.0.1		js-agent.newrelic.com
127.0.0.1		mobile-collector.newrelic.com
127.0.0.1		nr-data.net
127.0.0.1		insights-collector.newrelic.com
127.0.0.1		nbcume.sc.omtrdc.net
127.0.0.1		sc.omtrdc.net
127.0.0.1		omtrdc.net
127.0.0.1		geolocation.onetrust.com
127.0.0.1		a.opmnstr.com
127.0.0.1		cdn.pendo.io
127.0.0.1		tag.perfectaudience.com
127.0.0.1		rum-static.pingdom.net
127.0.0.1		cdn.polyfill.io
127.0.0.1		polyfill.io
127.0.0.1		pubdirecte.com
127.0.0.1		ads.pubmatic.com
127.0.0.1		aktrack.pubmatic.com
127.0.0.1		gads.pubmatic.com
127.0.0.1		image2.pubmatic.com
127.0.0.1		simage2.pubmatic.com
127.0.0.1		quantcast.net
127.0.0.1		secure.qwantserve.com
127.0.0.1		pixel.quantserve.com
127.0.0.1		eventlogger-k8s.quizlet.com
127.0.0.1		reload.getsentry.net
127.0.0.1		cdn.snigelweb.com
127.0.0.1		cdn.ravenjs.com
127.0.0.1		adlic.rjfun.com
127.0.0.1		pub.searchiq.co
127.0.0.1		choices.consentframework.com
127.0.0.1		s.skimresources.com
127.0.0.1		adsrvr.org
127.0.0.1		akamai.smartadserver.com
127.0.0.1		cdn1.smartadserver.com
127.0.0.1		diff2.smartadserver.com
127.0.0.1		diff3.smartadserver.com
127.0.0.1		diff.smartadserver.com
127.0.0.1		eqx.smartadserver.com
127.0.0.1		gallery.smartadserver.com
127.0.0.1		im2.smartadserver.com
127.0.0.1		insight.adsrvr.org
127.0.0.1		itx5-publicidad.smartadserver.com
127.0.0.1		itx5.smartadserver.com
127.0.0.1		js.adsrvr.org
127.0.0.1		match.adsrvr.org
127.0.0.1		preview.smartadserver.com
127.0.0.1		rtb-csync.smartadserver.com
127.0.0.1		saspreview.com
127.0.0.1		smartadserver.ru
127.0.0.1		tmk.smartadserver.com
127.0.0.1		usw-lax.adsrvr.org
127.0.0.1		lp.smartlook.com
127.0.0.1		app.smartlook.com
127.0.0.1		stack-sonar.com
127.0.0.1		statcounter.com
127.0.0.1		ads.stickyadstv.com
127.0.0.1		cdn.taboola.com
127.0.0.1		tinder-analytics.com
127.0.0.1		analytics.tinder.com
127.0.0.1		ads.tinder.com
127.0.0.1		tinderads.com
127.0.0.1		tpdads.com
127.0.0.1		cdn.tpdads.com
127.0.0.1		trafficjunky.com
127.0.0.1		trafficjunky.net
127.0.0.1		hw-cdn2.ang-content.com
127.0.0.1		a.adtng.com
127.0.0.1		trafficmanager.net
127.0.0.1		analytics.twitter.com
127.0.0.1		dc.glbtls.t.co
127.0.0.1		ads-twitter.com
127.0.0.1		syndication.twitter.com
127.0.0.1		cdn.syndication.twimg.com
127.0.0.1		platform.twitter.com
127.0.0.1		feed-prod.unitycms.io
127.0.0.1		7487.wcitianka.com
127.0.0.1		stats.wp.com
127.0.0.1		web.analytics.yahoo.com
127.0.0.1		syndication.twitter.com
127.0.0.1		cdn.syndication.twimg.com
127.0.0.1		platform.twitter.com

# --- COSMETIC BLOCKING ---

